{
  "openapi": "3.0.1",
  "info": {
    "title": "Digimuth.CrudFramework.Template.Web",
    "version": "1.0"
  },
  "servers": [
    {
      "url": "https://localhost:5001"
    }
  ],
  "paths": {
    "/api/ApplicationUser/{id}/roles": {
      "post": {
        "tags": [
          "ApplicationUser"
        ],
        "parameters": [
          {
            "name": "id",
            "in": "path",
            "required": true,
            "schema": {
              "type": "integer",
              "format": "int64"
            }
          }
        ],
        "requestBody": {
          "content": {
            "application/json": {
              "schema": {
                "type": "array",
                "items": {
                  "$ref": "#/components/schemas/ApplicationUserRole"
                }
              }
            },
            "text/json": {
              "schema": {
                "type": "array",
                "items": {
                  "$ref": "#/components/schemas/ApplicationUserRole"
                }
              }
            },
            "application/*+json": {
              "schema": {
                "type": "array",
                "items": {
                  "$ref": "#/components/schemas/ApplicationUserRole"
                }
              }
            }
          }
        },
        "responses": {
          "200": {
            "description": "Success"
          },
          "401": {
            "description": "Unauthorized"
          },
          "403": {
            "description": "Forbidden"
          }
        },
        "security": [
          {
            "oauth2": [ ]
          }
        ]
      }
    },
    "/api/ApplicationUser/activate": {
      "post": {
        "tags": [
          "ApplicationUser"
        ],
        "requestBody": {
          "content": {
            "application/json": {
              "schema": {
                "$ref": "#/components/schemas/ApplicationUserActivationDto"
              }
            },
            "text/json": {
              "schema": {
                "$ref": "#/components/schemas/ApplicationUserActivationDto"
              }
            },
            "application/*+json": {
              "schema": {
                "$ref": "#/components/schemas/ApplicationUserActivationDto"
              }
            }
          }
        },
        "responses": {
          "200": {
            "description": "Success"
          }
        }
      }
    },
    "/api/ApplicationUser/beginForgotPassword": {
      "post": {
        "tags": [
          "ApplicationUser"
        ],
        "requestBody": {
          "content": {
            "application/json": {
              "schema": {
                "$ref": "#/components/schemas/StartForgotPasswordDto"
              }
            },
            "text/json": {
              "schema": {
                "$ref": "#/components/schemas/StartForgotPasswordDto"
              }
            },
            "application/*+json": {
              "schema": {
                "$ref": "#/components/schemas/StartForgotPasswordDto"
              }
            }
          }
        },
        "responses": {
          "200": {
            "description": "Success"
          }
        }
      }
    },
    "/api/ApplicationUser/endForgotPassword": {
      "post": {
        "tags": [
          "ApplicationUser"
        ],
        "requestBody": {
          "content": {
            "application/json": {
              "schema": {
                "$ref": "#/components/schemas/EndForgotPasswordDto"
              }
            },
            "text/json": {
              "schema": {
                "$ref": "#/components/schemas/EndForgotPasswordDto"
              }
            },
            "application/*+json": {
              "schema": {
                "$ref": "#/components/schemas/EndForgotPasswordDto"
              }
            }
          }
        },
        "responses": {
          "200": {
            "description": "Success"
          }
        }
      }
    },
    "/api/ApplicationUser": {
      "post": {
        "tags": [
          "ApplicationUser"
        ],
        "requestBody": {
          "content": {
            "application/json": {
              "schema": {
                "$ref": "#/components/schemas/ApplicationUserRegisterDto"
              }
            }
          }
        },
        "responses": {
          "200": {
            "description": "Success",
            "content": {
              "application/json": {
                "schema": {
                  "$ref": "#/components/schemas/ApplicationUserDetailsDto"
                }
              }
            }
          },
          "401": {
            "description": "Unauthorized"
          },
          "403": {
            "description": "Forbidden"
          }
        },
        "security": [
          {
            "oauth2": [ ]
          }
        ]
      },
      "get": {
        "tags": [
          "ApplicationUser"
        ],
        "responses": {
          "200": {
            "description": "Success",
            "content": {
              "application/json": {
                "schema": {
                  "type": "array",
                  "items": {
                    "$ref": "#/components/schemas/ApplicationUserDto"
                  }
                }
              }
            }
          },
          "401": {
            "description": "Unauthorized"
          },
          "403": {
            "description": "Forbidden"
          }
        },
        "security": [
          {
            "oauth2": [ ]
          }
        ]
      }
    },
    "/api/ApplicationUser/{id}": {
      "put": {
        "tags": [
          "ApplicationUser"
        ],
        "parameters": [
          {
            "name": "id",
            "in": "path",
            "required": true,
            "schema": {
              "type": "integer",
              "format": "int64"
            }
          }
        ],
        "requestBody": {
          "content": {
            "application/json": {
              "schema": {
                "$ref": "#/components/schemas/ApplicationUserRegisterDto"
              }
            }
          }
        },
        "responses": {
          "200": {
            "description": "Success",
            "content": {
              "application/json": {
                "schema": {
                  "$ref": "#/components/schemas/ApplicationUserDetailsDto"
                }
              }
            }
          },
          "401": {
            "description": "Unauthorized"
          },
          "403": {
            "description": "Forbidden"
          }
        },
        "security": [
          {
            "oauth2": [ ]
          }
        ]
      },
      "patch": {
        "tags": [
          "ApplicationUser"
        ],
        "parameters": [
          {
            "name": "id",
            "in": "path",
            "required": true,
            "schema": {
              "type": "integer",
              "format": "int64"
            }
          }
        ],
        "requestBody": {
          "content": {
            "application/merge-patch+json": {
              "schema": {
                "$ref": "#/components/schemas/ApplicationUserRegisterDto"
              }
            }
          }
        },
        "responses": {
          "200": {
            "description": "Success",
            "content": {
              "application/json": {
                "schema": {
                  "$ref": "#/components/schemas/ApplicationUserDetailsDto"
                }
              }
            }
          },
          "401": {
            "description": "Unauthorized"
          },
          "403": {
            "description": "Forbidden"
          }
        },
        "security": [
          {
            "oauth2": [ ]
          }
        ]
      },
      "delete": {
        "tags": [
          "ApplicationUser"
        ],
        "parameters": [
          {
            "name": "id",
            "in": "path",
            "required": true,
            "schema": {
              "type": "integer",
              "format": "int64"
            }
          }
        ],
        "responses": {
          "200": {
            "description": "Success"
          },
          "401": {
            "description": "Unauthorized"
          },
          "403": {
            "description": "Forbidden"
          }
        },
        "security": [
          {
            "oauth2": [ ]
          }
        ]
      },
      "get": {
        "tags": [
          "ApplicationUser"
        ],
        "parameters": [
          {
            "name": "id",
            "in": "path",
            "required": true,
            "schema": {
              "type": "integer",
              "format": "int64"
            }
          }
        ],
        "responses": {
          "200": {
            "description": "Success",
            "content": {
              "application/json": {
                "schema": {
                  "$ref": "#/components/schemas/ApplicationUserDetailsDto"
                }
              }
            }
          },
          "401": {
            "description": "Unauthorized"
          },
          "403": {
            "description": "Forbidden"
          }
        },
        "security": [
          {
            "oauth2": [ ]
          }
        ]
      }
    },
    "/api/Authentication/login": {
      "get": {
        "tags": [
          "Authentication"
        ],
        "parameters": [
          {
            "name": "loginPageUrl",
            "in": "query",
            "schema": {
              "type": "string"
            }
          },
          {
            "name": "returnUrl",
            "in": "query",
            "schema": {
              "type": "string"
            }
          }
        ],
        "responses": {
          "200": {
            "description": "Success"
          }
        }
      },
      "post": {
        "tags": [
          "Authentication"
        ],
        "parameters": [
          {
            "name": "returnUrl",
            "in": "query",
            "schema": {
              "type": "string"
            }
          }
        ],
        "requestBody": {
          "content": {
            "application/json": {
              "schema": {
                "$ref": "#/components/schemas/LoginDto"
              }
            },
            "text/json": {
              "schema": {
                "$ref": "#/components/schemas/LoginDto"
              }
            },
            "application/*+json": {
              "schema": {
                "$ref": "#/components/schemas/LoginDto"
              }
            }
          }
        },
        "responses": {
          "200": {
            "description": "Success"
          }
        }
      }
    },
    "/api/Authentication/loginCallback": {
      "get": {
        "tags": [
          "Authentication"
        ],
        "parameters": [
          {
            "name": "returnUrl",
            "in": "query",
            "schema": {
              "type": "string"
            }
          }
        ],
        "responses": {
          "200": {
            "description": "Success"
          }
        }
      }
    },
    "/api/Authentication/logout": {
      "get": {
        "tags": [
          "Authentication"
        ],
        "parameters": [
          {
            "name": "postLogoutUrl",
            "in": "query",
            "schema": {
              "type": "string"
            }
          }
        ],
        "responses": {
          "200": {
            "description": "Success"
          }
        }
      }
    }
  },
  "components": {
    "schemas": {
      "ApplicationUserActivationDto": {
        "type": "object",
        "properties": {
          "email": {
            "type": "string",
            "format": "email",
            "nullable": true
          },
          "password": {
            "type": "string",
            "nullable": true
          },
          "token": {
            "type": "string",
            "nullable": true
          }
        },
        "additionalProperties": false
      },
      "ApplicationUserDetailsDto": {
        "type": "object",
        "properties": {
          "id": {
            "type": "integer",
            "format": "int64",
            "readOnly": true
          },
          "createdAt": {
            "type": "string",
            "format": "date-time",
            "readOnly": true
          },
          "createdById": {
            "type": "integer",
            "format": "int64",
            "readOnly": true
          },
          "updatedAt": {
            "type": "string",
            "format": "date-time",
            "nullable": true,
            "readOnly": true
          },
          "updatedById": {
            "type": "integer",
            "format": "int64",
            "nullable": true,
            "readOnly": true
          },
          "userName": {
            "type": "string",
            "nullable": true
          },
          "email": {
            "type": "string",
            "format": "email",
            "nullable": true
          },
          "emailConfirmed": {
            "type": "boolean"
          },
          "roles": {
            "type": "array",
            "items": {
              "$ref": "#/components/schemas/ApplicationUserRole"
            },
            "nullable": true,
            "readOnly": true
          }
        },
        "additionalProperties": false
      },
      "ApplicationUserDto": {
        "type": "object",
        "properties": {
          "id": {
            "type": "integer",
            "format": "int64",
            "readOnly": true
          },
          "createdAt": {
            "type": "string",
            "format": "date-time",
            "readOnly": true
          },
          "createdById": {
            "type": "integer",
            "format": "int64",
            "readOnly": true
          },
          "updatedAt": {
            "type": "string",
            "format": "date-time",
            "nullable": true,
            "readOnly": true
          },
          "updatedById": {
            "type": "integer",
            "format": "int64",
            "nullable": true,
            "readOnly": true
          },
          "userName": {
            "type": "string",
            "nullable": true
          },
          "email": {
            "type": "string",
            "format": "email",
            "nullable": true
          },
          "emailConfirmed": {
            "type": "boolean"
          }
        },
        "additionalProperties": false
      },
      "ApplicationUserRegisterDto": {
        "type": "object",
        "properties": {
          "id": {
            "type": "integer",
            "format": "int64",
            "readOnly": true
          },
          "createdAt": {
            "type": "string",
            "format": "date-time",
            "readOnly": true
          },
          "createdById": {
            "type": "integer",
            "format": "int64",
            "readOnly": true
          },
          "updatedAt": {
            "type": "string",
            "format": "date-time",
            "nullable": true,
            "readOnly": true
          },
          "updatedById": {
            "type": "integer",
            "format": "int64",
            "nullable": true,
            "readOnly": true
          },
          "userName": {
            "type": "string",
            "nullable": true
          },
          "email": {
            "type": "string",
            "format": "email",
            "nullable": true
          },
          "emailConfirmed": {
            "type": "boolean"
          },
          "password": {
            "type": "string",
            "nullable": true
          },
          "withInvitation": {
            "type": "boolean"
          },
          "role": {
            "$ref": "#/components/schemas/ApplicationUserRole"
          }
        },
        "additionalProperties": false
      },
      "ApplicationUserRole": {
        "enum": [
          "Admin"
        ],
        "type": "string"
      },
      "EndForgotPasswordDto": {
        "type": "object",
        "properties": {
          "email": {
            "type": "string",
            "format": "email",
            "nullable": true
          },
          "token": {
            "type": "string",
            "nullable": true
          },
          "newPassword": {
            "type": "string",
            "nullable": true
          }
        },
        "additionalProperties": false
      },
      "IContractResolver": {
        "type": "object",
        "additionalProperties": false
      },
      "LoginDto": {
        "type": "object",
        "properties": {
          "email": {
            "type": "string",
            "nullable": true
          },
          "password": {
            "type": "string",
            "nullable": true
          },
          "rememberMe": {
            "type": "boolean"
          }
        },
        "additionalProperties": false
      },
      "OperationType": {
        "enum": [
          "Add",
          "Remove",
          "Replace",
          "Move",
          "Copy",
          "Test",
          "Invalid"
        ],
        "type": "string"
      },
      "StartForgotPasswordDto": {
        "type": "object",
        "properties": {
          "email": {
            "type": "string",
            "format": "email",
            "nullable": true
          }
        },
        "additionalProperties": false
      }
    },
    "securitySchemes": {
      "oauth2": {
        "type": "oauth2",
        "flows": {
          "authorizationCode": {
            "authorizationUrl": "/connect/authorize",
            "tokenUrl": "/connect/token",
            "scopes": {
              "offline_access": "Get refresh token",
              "profile": "User profile",
              "openid": "Open ID",
              "Digimuth.CrudFramework.Template.WebAPI": "API access"
            }
          }
        }
      }
    }
  }
}